{
	"000": {
		"size": 6,
		"costs": {
			"easy": 170,
			"medium": 200,
			"hard": 215,
			"impoppable": 240
		}
	},
	"100": {
		"name": "Sharp Shots",
		"costs": {
			"easy": 120,
			"medium": 140,
			"hard": 150,
			"impoppable": 170
		}
	},
	"200": {
		"name": "Razor Sharp Shots",
		"costs": {
			"easy": 185,
			"medium": 220,
			"hard": 235,
			"impoppable": 265
		}
	},
	"300": {
		"name": "Spike-O-Pult",
		"costs": {
			"easy": 255,
			"medium": 300,
			"hard": 325,
			"impoppable": 360
		}
	},
	"400": {
		"name": "Juggernaut",
		"costs": {
			"easy": 1530,
			"medium": 1800,
			"hard": 1945,
			"impoppable": 2160
		}
	},
	"500": {
		"name": "Ultra Juggernaut",
		"costs": {
			"easy": 12750,
			"medium": 15000,
			"hard": 16200,
			"impoppable": 18000
		}
	},
	"010": {
		"name": "Quick Shots",
		"costs": {
			"easy": 85,
			"medium": 100,
			"hard": 110,
			"impoppable": 120
		}
	},
	"020": {
		"name": "Very Quick Shots",
		"costs": {
			"easy": 160,
			"medium": 190,
			"hard": 205,
			"impoppable": 230
		}
	},
	"030": {
		"name": "Triple Shot",
		"costs": {
			"easy": 340,
			"medium": 400,
			"hard": 430,
			"impoppable": 480
		}
	},
	"040": {
		"name": "Super Monkey Fan Club",
		"costs": {
			"easy": 6800,
			"medium": 8000,
			"hard": 8640,
			"impoppable": 9600
		}
	},
	"050": {
		"name": "Plasma Monkey Fan Club",
		"costs": {
			"easy": 38250,
			"medium": 45000,
			"hard": 48600,
			"impoppable": 54000
		}
	},
	"001": {
		"name": "Long Range Darts",
		"costs": {
			"easy": 75,
			"medium": 90,
			"hard": 95,
			"impoppable": 110
		}
	},
	"002": {
		"name": "Enhanced Eyesight",
		"costs": {
			"easy": 170,
			"medium": 200,
			"hard": 215,
			"impoppable": 240
		}
	},
	"003": {
		"name": "Crossbow",
		"costs": {
			"easy": 530,
			"medium": 625,
			"hard": 675,
			"impoppable": 750
		}
	},
	"004": {
		"name": "Sharp Shooter",
		"costs": {
			"easy": 1700,
			"medium": 2000,
			"hard": 2160,
			"impoppable": 2400
		}
	},
	"005": {
		"name": "Crossbow Master",
		"costs": {
			"easy": 19975,
			"medium": 23500,
			"hard": 25380,
			"impoppable": 28200
		}
	},
	"600": {
		"name": "Apex Plasma Master",
		"costs": {
			"easy": 297500,
			"medium": 350000,
			"hard": 378000,
			"impoppable": 420000
		}
	}
}
